{
    "swagger": "2.0",
    "info": {
        "version": "1.0",
        "title": "API Events",
        "description": "Back-end documentation of the event application",
        "license": {
            "name": "MIT",
            "url": "https://opensource.org/licenses/MIT"
        }
    },
    "host": "localhost:5000",
    "basePath": "/",
    "tags" : [
        {
            "name" : "Api",
            "description" : "API for Login"
        }
    ],
    "sche,es": [
        "http"
    ],
    "consumes": [
        "application/json"
    ],
    "produces": [
        "application/json"
    ],
    "securityDefinitions": {
		"Bearer": {
			"type": "apiKey",
            "name": "Authorization",
            "in": "header"
		}
	},
    "paths" : {
        "/login": {
            "get": {
                "tags": [
                    "Login"
                ],
                "summary": "User Authentication",
                "parameters": [
                    {
                        "in": "query",
                        "name": "username",
                        "required": true,
                        "description": "User name",
                        "type" : "string"
                    },
                    {
                        "in": "query",
                        "name": "password",
                        "required": true,
                        "description": "Password",
                        "type" : "string"
                    }
                ],
                "produces": [
                    "application/json"
                ],
                "responses": {
                    "200": {
                        "description": "OK"
                    }
                }
            },
            "post": {
                "tags": [
                    "Login"
                ],
                "summary": "Register new user",
                "parameters": [
                    {
                        "in": "body",
                        "name": "User",
                        "required": true,
                        "description": "New User Properties",
                        "schema": {
                            "$ref": "#/definitions/user"
                        }
                    }
                ],
                "produces": [
                    "application/json"
                ],
                "responses": {
                    "200": {
                        "description": "OK"
                    },
                    "500": {
                        "description": "Internal Server Error"
                    }
                }
            }
         },
         "/events": {    
            "get": {
                "tags": [
                    "Event"
                ],
                "summary": "Return Events",
                "security": [
                    {
                        "Bearer": []
                    }
                ],
                "responses": {
                    "200": {
                        "description": "OK",
                        "schema": {
                            "$ref": "#/definitions/event"
                        }
                    }
                }
            },
            "post": {
                "tags": [
                    "Event"
                ],
                "summary": "Add new Event",
                "security": [
                    {
                        "Bearer": []
                    }
                ],
                "parameters": [
                    {
                        "in": "body",
                        "name": "Event",
                        "required": true,
                        "description": "New Event Properties",
                        "schema": {
                            "$ref": "#/definitions/event"
                        }
                    }
                ],
                "produces": [
                    "application/json"
                ],
                "responses": {
                    "200": {
                        "description": "OK"
                    },
                    "400": {
                        "description": "Failed. Bad post data."
                    }
                }
            }
        },
        "/events/{id}": {
            "get": {
                "tags": [
                    "Event"
                ],
                "summary": "Get event info with given ID",
                "security": [
                    {
                        "Bearer": []
                    }
                ],
                "parameters": [
                    {
                        "in": "path",
                        "name": "id",
                        "required": true,
                        "description": "Event with id",
                        "schema": {
                            "$ref": "#/definitions/id"
                        }
                    }
                ],
                "responses": {
                    "200": {
                        "description": "OK",
                        "schema": {
                            "$ref": "#/definitions/event"
                        }
                    },
                    "404": {
                        "description": "Failed. Event not found."
                    }
                }
            },
            "post": {
                "tags": [
                    "Event"
                ],
                "summary": "add event participant with ID",
                "security": [
                    {
                        "Bearer": []
                    }
                ],
                "parameters": [
                    {
                        "in": "path",
                        "name": "id",
                        "required": true,
                        "description": "Event with id",
                        "schema": {
                            "$ref": "#/definitions/id"
                        }
                    },
                    {
                        "in": "body",
                        "name": "User",
                        "required": true,
                        "description": "New Participant",
                        "schema": {
                            "$ref": "#/definitions/subscribedParticipant"
                        }
                    }
                ],
                "produces": [
                    "application/json"
                ],
                "responses": {
                    "200": {
                        "description": "OK",
                        "schema": {
                            "$ref": "#/definitions/event"
                        }
                    },
                    "400": {
                        "description": "Failed. Bad post data."
                    }
                }
            }
        }
    },
    "definitions": {
        "id": {
            "properties": {
                "id": {
                    "type": "string"
                }
            }
        },
        "user": {
            "type": "object",
            "properties": {
                "name": {
                    "type": "string"
                },
                "username": {
                    "type": "string"
                },
                "email": {
                    "type": "string"
                },
                "password": {
                    "type": "string"
                }
            }
        },
        "subscribedParticipant": {
            "type": "object",
            "properties": {
                "id": {
                    "type": "string"
                },
                "date": {
                    "type": "string"
                },
                "price": {
                    "type": "number"
                },
                "status": {
                    "type": "string"
                }
            }
        },
        "subscribed": {
            "type": "object",
            "properties": {
                "id": {
                    "type": "string"
                },
                "date": {
                    "type": "string"
                },
                "price": {
                    "type": "number"
                },
                "status": {
                    "type": "string"
                }
            }
        },
        "event":{
            "type": "object",
            "properties": {
                "capacity": {
                    "type": "number"
                },
                "description": {
                    "type": "string"
                },
                "date": {
                    "type": "string"
                },
                "location": {
                    "type": "string"
                },
               "subscribed": {
                "type": "array",
                "items": {
                        "$ref": "#/definitions/subscribed"
                }
               }
            }
        }
    }
}